{
    "establishments": [
        {
            "AddressLine1": "40 Hope Street",
            "AddressLine2": "",
            "AddressLine3": "Liverpool",
            "AddressLine4": "",
            "BusinessName": "1931",
            "BusinessType": "Restaurant/Cafe/Canteen",
            "BusinessTypeID": 1,
            "ChangesByServerID": 0,
            "Distance": null,
            "FHRSID": 1571033,
            "LocalAuthorityBusinessID": "83185",
            "LocalAuthorityCode": "414",
            "LocalAuthorityEmailAddress": "environmental.health@liverpool.gov.uk",
            "LocalAuthorityName": "Liverpool",
            "LocalAuthorityWebSite": "http://www.liverpool.gov.uk",
            "NewRatingPending": false,
            "Phone": "",
            "PostCode": "L1 9DA",
            "RatingDate": "2023-02-13T00:00:00",
            "RatingKey": "fhrs_5_en-gb",
            "RatingValue": "5",
            "RightToReply": "",
            "SchemeType": "FHRS",
            "geocode": {
                "longitude": "-2.9710969",
                "latitude": "53.4009327"
            },
            "scores": {
                "Hygiene": 5,
                "Structural": 5,
                "ConfidenceInManagement": 5
            }
        },
        {
            "AddressLine1": "Unit 35 The Met Quarter 43 Whitechapel",
            "AddressLine2": "",
            "AddressLine3": "Liverpool",
            "AddressLine4": "",
            "BusinessName": "200 Degrees Coffee Shop",
            "BusinessType": "Restaurant/Cafe/Canteen",
            "BusinessTypeID": 1,
            "ChangesByServerID": 0,
            "Distance": null,
            "FHRSID": 1243646,
            "LocalAuthorityBusinessID": "71414",
            "LocalAuthorityCode": "414",
            "LocalAuthorityEmailAddress": "environmental.health@liverpool.gov.uk",
            "LocalAuthorityName": "Liverpool",
            "LocalAuthorityWebSite": "http://www.liverpool.gov.uk",
            "NewRatingPending": false,
            "Phone": "",
            "PostCode": "L1 6DA",
            "RatingDate": "2019-11-07T00:00:00",
            "RatingKey": "fhrs_5_en-gb",
            "RatingValue": "5",
            "RightToReply": "",
            "SchemeType": "FHRS",
            "geocode": {
                "longitude": "-2.9857465",
                "latitude": "53.4067903"
            },
            "scores": {
                "Hygiene": 5,
                "Structural": 5,
                "ConfidenceInManagement": 5
            }
        },
        {
            "AddressLine1": "3 Church Road",
            "AddressLine2": "",
            "AddressLine3": "Liverpool",
            "AddressLine4": "",
            "BusinessName": "21st Amendment",
            "BusinessType": "Pub/bar/nightclub",
            "BusinessTypeID": 7843,
            "ChangesByServerID": 0,
            "Distance": null,
            "FHRSID": 1437684,
            "LocalAuthorityBusinessID": "80666",
            "LocalAuthorityCode": "414",
            "LocalAuthorityEmailAddress": "environmental.health@liverpool.gov.uk",
            "LocalAuthorityName": "Liverpool",
            "LocalAuthorityWebSite": "http://www.liverpool.gov.uk",
            "NewRatingPending": false,
            "Phone": "",
            "PostCode": "L15 9EA",
            "RatingDate": "2022-09-21T00:00:00",
            "RatingKey": "fhrs_5_en-gb",
            "RatingValue": "5",
            "RightToReply": "",
            "SchemeType": "FHRS",
            "geocode": {
                "longitude": "-2.9148579",
                "latitude": "53.3896278"
            },
            "scores": {
                "Hygiene": 5,
                "Structural": 0,
                "ConfidenceInManagement": 0
            }
        },
        {
            "AddressLine1": "5 Langley Close",
            "AddressLine2": "",
            "AddressLine3": "Liverpool",
            "AddressLine4": "",
            "BusinessName": "24 Karat Dessert Bar",
            "BusinessType": "Takeaway/sandwich shop",
            "BusinessTypeID": 7844,
            "ChangesByServerID": 0,
            "Distance": null,
            "FHRSID": 1630845,
            "LocalAuthorityBusinessID": "87771",
            "LocalAuthorityCode": "414",
            "LocalAuthorityEmailAddress": "environmental.health@liverpool.gov.uk",
            "LocalAuthorityName": "Liverpool",
            "LocalAuthorityWebSite": "http://www.liverpool.gov.uk",
            "NewRatingPending": false,
            "Phone": "",
            "PostCode": "L12 0NB",
            "RatingDate": "2024-02-29T00:00:00",
            "RatingKey": "fhrs_5_en-gb",
            "RatingValue": "5",
            "RightToReply": "",
            "SchemeType": "FHRS",
            "geocode": {
                "longitude": "-2.8789677",
                "latitude": "53.4497276"
            },
            "scores": {
                "Hygiene": 5,
                "Structural": 5,
                "ConfidenceInManagement": 5
            }
        },
        {
            "AddressLine1": "24 Kitchen Street",
            "AddressLine2": "",
            "AddressLine3": "Liverpool",
            "AddressLine4": "",
            "BusinessName": "24 Kitchen Street",
            "BusinessType": "Pub/bar/nightclub",
            "BusinessTypeID": 7843,
            "ChangesByServerID": 0,
            "Distance": null,
            "FHRSID": 1048012,
            "LocalAuthorityBusinessID": "PI/000260241",
            "LocalAuthorityCode": "414",
            "LocalAuthorityEmailAddress": "environmental.health@liverpool.gov.uk",
            "LocalAuthorityName": "Liverpool",
            "LocalAuthorityWebSite": "http://www.liverpool.gov.uk",
            "NewRatingPending": false,
            "Phone": "",
            "PostCode": "L1 0AN",
            "RatingDate": "2020-02-27T00:00:00",
            "RatingKey": "fhrs_5_en-gb",
            "RatingValue": "5",
            "RightToReply": "",
            "SchemeType": "FHRS",
            "geocode": {
                "longitude": "-2.9819139",
                "latitude": "53.3973172"
            },
            "scores": {
                "Hygiene": 5,
                "Structural": 5,
                "ConfidenceInManagement": 5
            }
        },
        {
            "AddressLine1": "Office Albion House 30 James Street",
            "AddressLine2": "",
            "AddressLine3": "Liverpool",
            "AddressLine4": "",
            "BusinessName": "30 James Street Hotel",
            "BusinessType": "Hotel/bed & breakfast/guest house",
            "BusinessTypeID": 7842,
            "ChangesByServerID": 0,
            "Distance": null,
            "FHRSID": 1621381,
            "LocalAuthorityBusinessID": "87158",
            "LocalAuthorityCode": "414",
            "LocalAuthorityEmailAddress": "environmental.health@liverpool.gov.uk",
            "LocalAuthorityName": "Liverpool",
            "LocalAuthorityWebSite": "http://www.liverpool.gov.uk",
            "NewRatingPending": false,
            "Phone": "",
            "PostCode": "L2 7PS",
            "RatingDate": "2024-02-15T00:00:00",
            "RatingKey": "fhrs_5_en-gb",
            "RatingValue": "5",
            "RightToReply": "",
            "SchemeType": "FHRS",
            "geocode": {
                "longitude": null,
                "latitude": null
            },
            "scores": {
                "Hygiene": 5,
                "Structural": 5,
                "ConfidenceInManagement": 5
            }
        },
        {
            "AddressLine1": "",
            "AddressLine2": "",
            "AddressLine3": "",
            "AddressLine4": "",
            "BusinessName": "4 Goodness Cake",
            "BusinessType": "Other catering premises",
            "BusinessTypeID": 7841,
            "ChangesByServerID": 0,
            "Distance": null,
            "FHRSID": 498476,
            "LocalAuthorityBusinessID": "PI/000245741",
            "LocalAuthorityCode": "414",
            "LocalAuthorityEmailAddress": "environmental.health@liverpool.gov.uk",
            "LocalAuthorityName": "Liverpool",
            "LocalAuthorityWebSite": "http://www.liverpool.gov.uk",
            "NewRatingPending": false,
            "Phone": "",
            "PostCode": "L14 ",
            "RatingDate": "2015-03-02T00:00:00",
            "RatingKey": "fhrs_5_en-gb",
            "RatingValue": "5",
            "RightToReply": "",
            "SchemeType": "FHRS",
            "geocode": {
                "longitude": null,
                "latitude": null
            },
            "scores": {
                "Hygiene": 0,
                "Structural": 0,
                "ConfidenceInManagement": 0
            }
        },
        {
            "AddressLine1": "Unit 4 Russel Hulme Buildings Shaw Road",
            "AddressLine2": "",
            "AddressLine3": "Liverpool",
            "AddressLine4": "",
            "BusinessName": "4% Fuel",
            "BusinessType": "Pub/bar/nightclub",
            "BusinessTypeID": 7843,
            "ChangesByServerID": 0,
            "Distance": null,
            "FHRSID": 1660975,
            "LocalAuthorityBusinessID": "90552",
            "LocalAuthorityCode": "414",
            "LocalAuthorityEmailAddress": "environmental.health@liverpool.gov.uk",
            "LocalAuthorityName": "Liverpool",
            "LocalAuthorityWebSite": "http://www.liverpool.gov.uk",
            "NewRatingPending": false,
            "Phone": "",
            "PostCode": "L24 9JT",
            "RatingDate": "2024-07-24T00:00:00",
            "RatingKey": "fhrs_5_en-gb",
            "RatingValue": "5",
            "RightToReply": "",
            "SchemeType": "FHRS",
            "geocode": {
                "longitude": "-2.8492037",
                "latitude": "53.352092"
            },
            "scores": {
                "Hygiene": 5,
                "Structural": 5,
                "ConfidenceInManagement": 5
            }
        },
        {
            "AddressLine1": "550 Aigburth Road",
            "AddressLine2": "",
            "AddressLine3": "Liverpool",
            "AddressLine4": "",
            "BusinessName": "5 Fifty Bistro",
            "BusinessType": "Restaurant/Cafe/Canteen",
            "BusinessTypeID": 1,
            "ChangesByServerID": 0,
            "Distance": null,
            "FHRSID": 586811,
            "LocalAuthorityBusinessID": "PI/000259103",
            "LocalAuthorityCode": "414",
            "LocalAuthorityEmailAddress": "environmental.health@liverpool.gov.uk",
            "LocalAuthorityName": "Liverpool",
            "LocalAuthorityWebSite": "http://www.liverpool.gov.uk",
            "NewRatingPending": false,
            "Phone": "",
            "PostCode": "L19 3QG",
            "RatingDate": "2019-05-03T00:00:00",
            "RatingKey": "fhrs_5_en-gb",
            "RatingValue": "5",
            "RightToReply": "",
            "SchemeType": "FHRS",
            "geocode": {
                "longitude": "-2.9164409",
                "latitude": "53.3632243"
            },
            "scores": {
                "Hygiene": 5,
                "Structural": 5,
                "ConfidenceInManagement": 0
            }
        },
        {
            "AddressLine1": "West Derby Golf Club 167 Yew Tree Lane",
            "AddressLine2": "",
            "AddressLine3": "Liverpool",
            "AddressLine4": "",
            "BusinessName": "5 Star Film Catering",
            "BusinessType": "Restaurant/Cafe/Canteen",
            "BusinessTypeID": 1,
            "ChangesByServerID": 0,
            "Distance": null,
            "FHRSID": 1621375,
            "LocalAuthorityBusinessID": "87151",
            "LocalAuthorityCode": "414",
            "LocalAuthorityEmailAddress": "environmental.health@liverpool.gov.uk",
            "LocalAuthorityName": "Liverpool",
            "LocalAuthorityWebSite": "http://www.liverpool.gov.uk",
            "NewRatingPending": false,
            "Phone": "",
            "PostCode": "L12 9HQ",
            "RatingDate": "2024-06-12T00:00:00",
            "RatingKey": "fhrs_5_en-gb",
            "RatingValue": "5",
            "RightToReply": "",
            "SchemeType": "FHRS",
            "geocode": {
                "longitude": "-2.88422413",
                "latitude": "53.42895401"
            },
            "scores": {
                "Hygiene": 5,
                "Structural": 5,
                "ConfidenceInManagement": 5
            }
        }
    ],
    "meta": {
        "dataSource": "ElasticSearch",
        "extractDate": "2025-07-28T12:15:42.9394091+01:00",
        "itemCount": 10,
        "returncode": "OK",
        "totalCount": 4296,
        "totalPages": 430,
        "pageSize": 10,
        "pageNumber": 1
    },
    "links": [
        {
            "rel": "self",
            "href": "http://api.ratings.food.gov.uk/establishments?localauthorityid=179&pagenumber=1&pagesize=10"
        },
        {
            "rel": "first",
            "href": "http://api.ratings.food.gov.uk:80/establishments?localauthorityid=179&pagenumber=1&pagesize=10"
        },
        {
            "rel": "previous",
            "href": "http://api.ratings.food.gov.uk:80/establishments?localauthorityid=179&pagenumber=1&pagesize=10"
        },
        {
            "rel": "next",
            "href": "http://api.ratings.food.gov.uk:80/establishments?localauthorityid=179&pagenumber=2&pagesize=10"
        },
        {
            "rel": "last",
            "href": "http://api.ratings.food.gov.uk:80/establishments?localauthorityid=179&pagenumber=430&pagesize=10"
        }
    ]
}